indel_poisson_regression
…
## Warning: package 'bindrcpp' was built under R version 3.4.4

mod_dat_log = mod_dat %>% mutate(gtex = log1p(gtex), INDEL=(INDEL), all_mut=log1p(all_mut)) 
mod_dat_log

## # A tibble: 3,134 x 6
##    gene   ensembl_gene_id    gtex INDEL   Sub all_mut
##    <chr>  <chr>             <dbl> <dbl> <dbl>   <dbl>
##  1 A1CF   ENSG00000148584 3.63        4     8    2.56
##  2 A2M    ENSG00000175899 5.88        0    12    2.56
##  3 AAK1   ENSG00000115977 0.331       0    20    3.04
##  4 ABCA1  ENSG00000165029 2.99        3    21    3.22
##  5 ABCA12 ENSG00000144452 0.00414     0    40    3.71
##  6 ABCA13 ENSG00000179869 0.0686      2    91    4.54
##  7 ABCA4  ENSG00000198691 0.323       0    17    2.89
##  8 ABCA8  ENSG00000141338 2.70        1    17    2.94
##  9 ABCB1  ENSG00000085563 2.19        0    18    2.94
## 10 ABCB11 ENSG00000073734 2.59        1    17    2.94
## # ... with 3,124 more rows
…
sim_dat = tibble(gtex_nonlog = mod_dat$gtex, all_mut_nonlog=mean(plt_dat$all_mut)) %>%
  mutate(gtex = log1p(gtex_nonlog), all_mut = log1p(all_mut_nonlog))
sim_pred = predict(gex_mod, newdata=sim_dat, se.fit=TRUE, interval='confidence', level=0.99)
sim_dat$INDEL = sim_pred$fit
sim_dat$se = sim_pred$se.fit
sim_dat = sim_dat %>%
  mutate(indel_prop = INDEL/all_mut,
         indel_prop_min = (INDEL-se)/all_mut,
         indel_prop_max = (INDEL+se)/all_mut) %>%
  filter(gtex_nonlog<100)
sim_dat

## # A tibble: 3,115 x 9
##    gtex_nonlog all_mut_nonlog    gtex all_mut  INDEL     se indel_prop
##          <dbl>          <dbl>   <dbl>   <dbl>  <dbl>  <dbl>      <dbl>
##  1    36.9               34.8 3.63       3.58 0.956  0.0343     0.267 
##  2     0.393             34.8 0.331      3.58 0.174  0.0174     0.0486
##  3    19.0               34.8 2.99       3.58 0.805  0.0278     0.225 
##  4     0.00415           34.8 0.00414    3.58 0.0964 0.0195     0.0269
##  5     0.0711            34.8 0.0686     3.58 0.112  0.0190     0.0312
##  6     0.382             34.8 0.323      3.58 0.172  0.0174     0.0481
##  7    13.9               34.8 2.70       3.58 0.735  0.0250     0.205 
##  8     7.98              34.8 2.19       3.58 0.615  0.0206     0.172 
##  9    12.4               34.8 2.59       3.58 0.710  0.0240     0.198 
## 10    30.8               34.8 3.46       3.58 0.915  0.0325     0.256 
## # ... with 3,105 more rows, and 2 more variables: indel_prop_min <dbl>,
## #   indel_prop_max <dbl>

Generate plot

label_dat = plt_dat %>%
  mutate(keep = ifelse(gtex>10, 1, ifelse(indel_prop>0.2, 1, 0))) %>%
  filter(keep == 1) %>%
  filter(all_mut>20)

plt_dat

## # A tibble: 3,134 x 8
##    gene   ensembl_gene_id    gtex INDEL   Sub all_mut indel_prop mut_level
##    <chr>  <chr>             <dbl> <dbl> <dbl>   <dbl>      <dbl> <ord>    
##  1 A1CF   ENSG00000148584 3.69e+1     4     8      12     0.333  >10      
##  2 A2M    ENSG00000175899 3.56e+2     0    12      12     0      >10      
##  3 AAK1   ENSG00000115977 3.93e-1     0    20      20     0      >10      
##  4 ABCA1  ENSG00000165029 1.90e+1     3    21      24     0.125  >20      
##  5 ABCA12 ENSG00000144452 4.15e-3     0    40      40     0      >20      
##  6 ABCA13 ENSG00000179869 7.11e-2     2    91      93     0.0215 >50      
##  7 ABCA4  ENSG00000198691 3.82e-1     0    17      17     0      >10      
##  8 ABCA8  ENSG00000141338 1.39e+1     1    17      18     0.0556 >10      
##  9 ABCB1  ENSG00000085563 7.98e+0     0    18      18     0      >10      
## 10 ABCB11 ENSG00000073734 1.24e+1     1    17      18     0.0556 >10      
## # ... with 3,124 more rows
…
